Introduction to epubr
…
This book is internally broken into sections at arbitrary break points, hence why several sections begin in the middle of chapters, as seen above. Other chapters begin in the middle of sections. Use epub_recombine along with a regular expression that can match the true section breaks. This function collapses the full text and then rebuilds the text table using new sections with proper break points. In the process it also recalculates the numbers of words and characters and relabels the sections with chapter notation.

Fortunately, a reliable pattern exists, which consists of CHAPTER in capital letters followed by a space and some Roman numerals. Recombine the text into a new object.

pat <- "CHAPTER [IVX]+"
x2 <- epub_recombine(x, pat)
x2
#> # A tibble: 1 x 10
#>   rights  identifier   creator  title language subject date  source  nchap data 
#>   <chr>   <chr>        <chr>    <chr> <chr>    <chr>   <chr> <chr>   <int> <lis>
#> 1 Public~ http://www.~ Bram St~ Drac~ en       Horror~ 1995~ http:/~    54 <tib~

x2$data[[1]]
#> # A tibble: 55 x 4
#>    section text                                                      nword nchar
#>    <chr>   <chr>                                                     <int> <int>
#>  1 prior   "The Project Gutenberg EBook of Dracula, by Bram StokerT~   159  1110
#>  2 ch01    "CHAPTER I\nPage\nJonathan Harker's Journal\n1\n"             7    43
#>  3 ch02    "CHAPTER II\nJonathan Harker's Journal\n14\n"                 6    40
#>  4 ch03    "CHAPTER III\nJonathan Harker's Journal\n26\n"                6    41
#>  5 ch04    "CHAPTER IV\nJonathan Harker's Journal\n38\n"                 6    40
#>  6 ch05    "CHAPTER V\nLetters-Lucy and Mina\n51\n"                      6    35
#>  7 ch06    "CHAPTER VI\nMina Murray's Journal\n59\n"                     6    36
#>  8 ch07    "CHAPTER VII\nCutting from \"The Dailygraph,\" 8 August\~     9    55
#>  9 ch08    "CHAPTER VIII\nMina Murray's Journal\n84\n"                   6    38
#> 10 ch09    "CHAPTER IX\nMina Murray's Journal\n98\n"                     6    36
#> # ... with 45 more rows

But this is not quite as expected. There should be 27 chapters, not 54. What was not initially apparent was that the same pattern matching each chapter name also appears in the first section where every chapter is listed in the table of contents. The new section breaks were successful in keeping chapter text in single, unique sections, but there are now twice as many as needed. Unintentionally, the first 27 “chapters” represent the table of contents being split on each chapter ID. These should be removed.

An easy way to do this is with epub_sift, which sifts, or filters out, small word- or character-count sections from the nested data frame. It’s a simple sieve and you can control the size of the holes with n. You can choose type = "word" (default) or type = "character". This is somewhat of a blunt instrument, but is useful in a circumstance like this one where it is clear it will work as desired.

library(dplyr)
x2 <- epub_recombine(x, pat) %>% epub_sift(n = 200)
x2
#> # A tibble: 1 x 10
#>   rights  identifier   creator  title language subject date  source  nchap data 
#>   <chr>   <chr>        <chr>    <chr> <chr>    <chr>   <chr> <chr>   <int> <lis>
#> 1 Public~ http://www.~ Bram St~ Drac~ en       Horror~ 1995~ http:/~    54 <tib~

x2$data[[1]]
#> # A tibble: 27 x 4
#>    section text                                                      nword nchar
#>    <chr>   <chr>                                                     <int> <int>
#>  1 ch28    "CHAPTER IJONATHAN HARKER'S JOURNAL\n(Kept in shorthand.~  5694 30602
#>  2 ch29    "CHAPTER IIJONATHAN HARKER'S JOURNAL-continued\n5 May.-I~  5476 28462
#>  3 ch30    "CHAPTER IIIJONATHAN HARKER'S JOURNAL-continued\nWHEN I ~  5703 29778
#>  4 ch31    "CHAPTER IVJONATHAN HARKER'S JOURNAL-continued\nI AWOKE ~  5828 30195
#>  5 ch32    "CHAPTER V\nLetter from Miss Mina Murray to Miss Lucy We~  3546 18004
#>  6 ch33    "CHAPTER VIMINA MURRAY'S JOURNAL\n24 July. Whitby.-Lucy ~  5654 29145
#>  7 ch34    "CHAPTER VIICUTTING FROM \"THE DAILYGRAPH,\" 8 AUGUST\n(~  5567 29912
#>  8 ch35    "CHAPTER VIIIMINA MURRAY'S JOURNAL\nSame day, 11 o'clock~  6267 32596
#>  9 ch36    "CHAPTER IX\nLetter, Mina Harker to Lucy Westenra.\n\"Bu~  5910 30129
#> 10 ch37    "CHAPTER X\nLetter, Dr. Seward to Hon. Arthur Holmwood.\~  5932 30730
#> # ... with 17 more rows

This removes the unwanted rows, but one problem remains. Note that sifting the table sections in this case results in a need to re-apply epub_recombine because the sections we removed had nevertheless offset the chapter indexing. Another call to epub_recombine can be chained, but it may be more convenient to use the sift argument to epub_recombine, which is applied recursively.

#epub_recombine(x, pat) %>% epub_sift(n = 200) %>% epub_recombine(pat)
x2 <- epub_recombine(x, pat, sift = list(n = 200))
x2
#> # A tibble: 1 x 10
#>   rights  identifier   creator  title language subject date  source  nchap data 
#>   <chr>   <chr>        <chr>    <chr> <chr>    <chr>   <chr> <chr>   <int> <lis>
#> 1 Public~ http://www.~ Bram St~ Drac~ en       Horror~ 1995~ http:/~    27 <tib~

x2$data[[1]]
#> # A tibble: 27 x 4
#>    section text                                                      nword nchar
#>    <chr>   <chr>                                                     <int> <int>
#>  1 ch01    "CHAPTER IJONATHAN HARKER'S JOURNAL\n(Kept in shorthand.~  5694 30602
#>  2 ch02    "CHAPTER IIJONATHAN HARKER'S JOURNAL-continued\n5 May.-I~  5476 28462
#>  3 ch03    "CHAPTER IIIJONATHAN HARKER'S JOURNAL-continued\nWHEN I ~  5703 29778
#>  4 ch04    "CHAPTER IVJONATHAN HARKER'S JOURNAL-continued\nI AWOKE ~  5828 30195
#>  5 ch05    "CHAPTER V\nLetter from Miss Mina Murray to Miss Lucy We~  3546 18005
#>  6 ch06    "CHAPTER VIMINA MURRAY'S JOURNAL\n24 July. Whitby.-Lucy ~  5654 29145
#>  7 ch07    "CHAPTER VIICUTTING FROM \"THE DAILYGRAPH,\" 8 AUGUST\n(~  5567 29912
#>  8 ch08    "CHAPTER VIIIMINA MURRAY'S JOURNAL\nSame day, 11 o'clock~  6267 32596
#>  9 ch09    "CHAPTER IX\nLetter, Mina Harker to Lucy Westenra.\n\"Bu~  5910 30129
#> 10 ch10    "CHAPTER X\nLetter, Dr. Seward to Hon. Arthur Holmwood.\~  5932 30730
#> # ... with 17 more rows

Reorder sections based on pattern in text

Some poorly formatted e-books have their internal sections occur in an arbitrary order. This can be frustrating to work with when doing text analysis on each section and where order matters. Just like recombining into new sections based on a pattern, sections that are out of order can be reordered based on a pattern. This requires a bit more work. In this case the user must provide a function that will map something in the matched pattern to an integer representing the desired row index.

Continue with the Dracula example, but with one difference. Even though the sections were originally broken at arbitrary points, they were in chronological order. To demonstrate the utility of epub_reorder, first randomize the rows so that chronological order can be recovered.

set.seed(1)
x2$data[[1]] <- sample_frac(x2$data[[1]]) # randomize rows for example
x2$data[[1]]
#> # A tibble: 27 x 4
#>    section text                                                      nword nchar
#>    <chr>   <chr>                                                     <int> <int>
#>  1 ch25    "CHAPTER XXVDR. SEWARD'S DIARY\n11 October, Evening.-Jon~  6214 32544
#>  2 ch04    "CHAPTER IVJONATHAN HARKER'S JOURNAL-continued\nI AWOKE ~  5828 30195
#>  3 ch07    "CHAPTER VIICUTTING FROM \"THE DAILYGRAPH,\" 8 AUGUST\n(~  5567 29912
#>  4 ch01    "CHAPTER IJONATHAN HARKER'S JOURNAL\n(Kept in shorthand.~  5694 30602
#>  5 ch02    "CHAPTER IIJONATHAN HARKER'S JOURNAL-continued\n5 May.-I~  5476 28462
#>  6 ch11    "CHAPTER XI\nLucy Westenra's Diary.\n12 September.-How g~  5126 26926
#>  7 ch14    "CHAPTER XIVMINA HARKER'S JOURNAL\n23 September.-Jonatha~  6411 32530
#>  8 ch18    "CHAPTER XVIIIDR. SEWARD'S DIARY\n30 September.-I got ho~  6911 35881
#>  9 ch19    "CHAPTER XIXJONATHAN HARKER'S JOURNAL\n1 October, 5 a. m~  5670 29431
#> 10 ch24    "CHAPTER XXIVDR. SEWARD'S PHONOGRAPH DIARY, SPOKEN BY VA~  6272 32065
#> # ... with 17 more rows
It is clear above that sections are now out of order. It is common enough to load poorly formatted EPUB files and yield this type of result. If all you care about is the text in its entirely, this does not matter, but if your analysis involves trends over the course of a book, this is problematic.

For this book, you need a function that will convert an annoying Roman numeral to an integer. You already have the pattern for finding the relevant information in each text section. You only need to tweak it for proper substitution. Here is an example:

f <- function(x, pattern) as.numeric(as.roman(gsub(pattern, "\\1", x)))

This function is passed to epub_reorder. It takes and returns scalars. It must take two arguments: the first is a text string. The second is the regular expression. It must return a single number representing the index of that row. For example, if the pattern matches CHAPTER IV, the function should return a 4.

epub_reorder takes care of the rest. It applies your function to every row in the the nested data frame and then reorders the rows based on the full set of indices. Note that it also repeats this for every row (book) in the primary data frame, i.e., for every nested table. This means that the same function will be applied to every book. Therefore, you should only use this in bulk on a collection of e-books if you know the pattern does not change and the function will work correctly in each case.

The pattern has changed slightly. Parentheses are used to retain the important part of the matched pattern, the Roman numeral. The function f here substitutes the entire string (because now it begins with ^ and ends with .*) with only the part stored in parentheses (In f, this is the \\1 substitution). epub_reorder applies this to all rows in the nested data frame:

x2 <- epub_reorder(x2, f, "^CHAPTER ([IVX]+).*")
x2$data[[1]]
#> # A tibble: 27 x 4
#>    section text                                                      nword nchar
#>    <chr>   <chr>                                                     <int> <int>
#>  1 ch01    "CHAPTER IJONATHAN HARKER'S JOURNAL\n(Kept in shorthand.~  5694 30602
#>  2 ch02    "CHAPTER IIJONATHAN HARKER'S JOURNAL-continued\n5 May.-I~  5476 28462
#>  3 ch03    "CHAPTER IIIJONATHAN HARKER'S JOURNAL-continued\nWHEN I ~  5703 29778
#>  4 ch04    "CHAPTER IVJONATHAN HARKER'S JOURNAL-continued\nI AWOKE ~  5828 30195
#>  5 ch05    "CHAPTER V\nLetter from Miss Mina Murray to Miss Lucy We~  3546 18005
#>  6 ch06    "CHAPTER VIMINA MURRAY'S JOURNAL\n24 July. Whitby.-Lucy ~  5654 29145
#>  7 ch07    "CHAPTER VIICUTTING FROM \"THE DAILYGRAPH,\" 8 AUGUST\n(~  5567 29912
#>  8 ch08    "CHAPTER VIIIMINA MURRAY'S JOURNAL\nSame day, 11 o'clock~  6267 32596
#>  9 ch09    "CHAPTER IX\nLetter, Mina Harker to Lucy Westenra.\n\"Bu~  5910 30129
#> 10 ch10    "CHAPTER X\nLetter, Dr. Seward to Hon. Arthur Holmwood.\~  5932 30730
#> # ... with 17 more rows
…
